Map tumor types across ontologies — map_ontology_code • mskcc.oncotree
…
    Value

    A tibble of two variables: first column is
corresponds to the from variable and the second is the to variable.

    See also

    oncotree_to_nci(), nci_to_oncotree(), oncotree_to_umls() and umls_to_oncotree().

    Examples

# Omit the `code` argument to get all possible mappings. Note that
# one-to-many mappings will generate more than one row per `from` code.
map_ontology_code(from = 'oncotree_code', to = 'nci_code')
#> # A tibble: 855 × 2
#>    oncotree_code nci_code
#>    <chr>         <chr>   
#>  1 MMB           C3706   
#>  2 AIS           C4123   
#>  3 AASTR         C9477   
#>  4 FL            C3209   
#>  5 VIMT          C4286   
#>  6 KIDNEY        C12415  
#>  7 MDEP          C4327   
#>  8 PAOS          C8969   
#>  9 PRSCC         C6766   
#> 10 DSTAD         C9159   
#> # … with 845 more rows
…
# Map from ICDO topography to ICDO morphology codes
map_ontology_code(
  'C72.9',
  from = 'icdo_topography_code',
  to = 'icdo_morphology_code'
  )
#> # A tibble: 65 × 2
#>    icdo_topography_code icdo_morphology_code
#>    <chr>                <chr>               
#>  1 C72.9                9401/3              
#>  2 C72.9                9501/3              
#>  3 C72.9                9390/1              
#>  4 C72.9                8000/3              
#>  5 C72.9                9424/3              
#>  6 C72.9                9391/3              
#>  7 C72.9                9425/3              
#>  8 C72.9                9383/1              
#>  9 C72.9                9100/3              
#> 10 C72.9                9522/3              
#> # … with 55 more rows
…
