Map OncoTree to UMLS codes — oncotree_to_umls • mskcc.oncotree
…
expand
Whether to expand one-to-many mappings. If TRUE, one-to-many mappings are expanded into several rows in the output.

keep_empty
OncoTree codes that do not map to UMLS have the umls_code with NA if keep_empty = TRUE. Use keep_empty = FALSE, to remove the mapping (row) altogether from the output.

    Value

    A tibble of two variables: oncotree_code and umls_code.

    Examples

# Leave `oncotree_code` empty to return mappings for all OncoTree codes
oncotree_to_umls()
#> # A tibble: 885 × 2
#>    oncotree_code umls_code
#>    <chr>         <list>   
#>  1 MMB           <chr [1]>
#>  2 GCB           <NULL>   
#>  3 SBLU          <NULL>   
#>  4 OHNCA         <NULL>   
#>  5 PAOS          <chr [1]>
#>  6 TMDS          <NULL>   
#>  7 ARMS          <chr [1]>
#>  8 SCST          <chr [1]>
#>  9 ITLPDGI       <NULL>   
#> 10 MBC           <chr [1]>
#> # … with 875 more rows
…
